Reason 6 Powerful data wrangling tools | Ten Reasons to Learn R
…
6.1 Filtering and counting rows

Let’s do a simple data wrangling task using functions from the Tidyverse:

Find all peaks that are higher than 7,000 meters and were climbed before 1980

Count which countries the climbers came from

We can use the filter() function to select only the rows (observations) we want. Then we can use the count() function to count how many rows there are for each kind of first_ascent_country:

before80_7k <- filter(peaks, first_ascent_year < 1980, height_metres > 7000)
count(before80_7k, first_ascent_country)

# A tibble: 28 x 2
   first_ascent_country     n
   <chr>                <int>
 1 Austria                  2
 2 Austria, Nepal           1
 3 Austria, USA, Nepal      1
 4 Austria, W Germany       1
 5 France                   3
 6 France, Nepal            1
 7 Germany, Austria         1
 8 Germany, Nepal           1
 9 India                    1
10 Japan                    7
# … with 18 more rows
…
Indubitably, sir!

6.3 Create new columns with mutate()

peaks %>% 
  select(peak_name, climbing_status, first_ascent_year, first_ascent_country) %>% 
  mutate(climbed_before80 = first_ascent_year < 1980)

# A tibble: 468 x 5
   peak_name  climbing_status first_ascent_ye… first_ascent_co… climbed_before80
   <chr>      <chr>                      <dbl> <chr>            <lgl>           
 1 Ama Dablam Climbed                     1961 New Zealand, US… TRUE            
 2 Amphu Gya… Climbed                     1953 UK               TRUE            
 3 Annapurna… Climbed                     1950 France           TRUE            
 4 Annapurna… Climbed                     1960 UK, Nepal        TRUE            
 5 Annapurna… Climbed                     1961 India            TRUE            
 6 Annapurna… Climbed                     1955 W Germany        TRUE            
 7 Annapurna… Climbed                     1974 Spain            TRUE            
 8 Annapurna… Climbed                     1980 W Germany        FALSE           
 9 Annapurna… Climbed                     1964 Japan, Nepal     TRUE            
10 Api Main   Climbed                     1960 Japan, Nepal     TRUE            
# … with 458 more rows

6.4 Split-apply-combine with group_by() and summarize()

Use group_by() and summarize() together for powerful split-apply-combine operations:

peaks %>% 
  filter(first_ascent_year > 201) %>% 
  group_by(first_ascent_country) %>% 
  summarize(min_ascent = min(first_ascent_year, na.rm = TRUE)) %>% 
  arrange(min_ascent)

# A tibble: 77 x 2
   first_ascent_country min_ascent
   <chr>                     <dbl>
 1 UK                         1909
 2 Austria                    1930
 3 Austria, UK                1930
 4 Germany, Austria           1930
 5 Germany, Nepal             1930
 6 Switzerland, Germany       1939
 7 Switzerland                1949
 8 Switzerland, Nepal         1949
 9 UK, Nepal                  1949
10 France                     1950
# … with 67 more rows
…
